## Author: Crieve-Sargeras
## Interface: 80100
## Title: AllTheThings
## Name: AllTheThings
## SavedVariables: AllTheThingsSettings, AllTheThingsAD, AllTheThingsDebugData, AllTheThingsHarvestItems
## SavedVariablesPerCharacter: AllTheThingsSettingsPerCharacter, AllTheThingsPCD
## Notes: Addon for Tracking Collections & Account Completion
## Version: 1.8.4
lib\LibStub\LibStub.lua
lib\CallbackHandler-1.0\CallbackHandler-1.0.lua
lib\LibDataBroker-1.1\LibDataBroker-1.1.lua
lib\!NoTaint_UIDropDownMenu\UIDropDownMenu.xml
src\base.lua
locales\enUS.lua
locales\enGB.lua
locales\esES.lua
locales\esMX.lua
locales\deDE.lua
locales\frFR.lua
locales\itIT.lua
locales\koKR.lua
locales\ptBR.lua
locales\ruRU.lua
AllTheThings.lua
db\Presets.lua
db\RaceDB.lua
db\NPCDB.lua
db\ItemDB.lua
db\Categories.lua
ScrollFrame.xml
Settings.lua